Categories:System
License:Apache-2.0
Author Name:Tibor Kaputa
Author Email:hello@simplemobiletools.com
Web Site:https://simplemobiletools.github.io
Source Code:https://github.com/SimpleMobileTools/Simple-Notes
Issue Tracker:https://github.com/SimpleMobileTools/Simple-Notes/issues
Changelog:https://github.com/SimpleMobileTools/Simple-Notes/blob/HEAD/CHANGELOG.md
Donate:https://simplemobiletools.github.io/donate
Bitcoin:19Hc8A7sWGud8sP19VXDC5a5j28UyJfpyJ
Litecoin:LYACbHTKaM9ZubKQGxJ4NRyVy1gHUuztRP

Auto Name:Notes

Repo Type:git
Repo:https://github.com/SimpleMobileTools/Simple-Notes

Build:1.6,6
    commit=75b23ffd313a542175802328187996b5f0a826c9
    subdir=app
    gradle=yes

Build:1.7,7
    commit=1.7
    subdir=app
    gradle=yes

Build:1.8,8
    commit=1.8
    subdir=app
    gradle=yes

Build:1.9,9
    commit=1.9
    subdir=app
    gradle=yes

Build:1.10,10
    commit=1.10
    subdir=app
    gradle=yes

Build:1.11,11
    commit=1.11
    subdir=app
    gradle=yes

Build:1.12,12
    commit=1.12
    subdir=app
    gradle=yes

Build:1.13,13
    commit=1.13
    subdir=app
    gradle=yes

Build:1.14,14
    commit=1.14
    subdir=app
    gradle=yes

Build:1.16,16
    commit=1.16
    subdir=app
    gradle=yes

Build:1.18,18
    commit=1.18
    subdir=app
    gradle=yes

Build:1.19,19
    commit=1.19
    subdir=app
    gradle=yes

Build:1.21,21
    commit=1.21
    subdir=app
    gradle=yes

Build:1.22,22
    commit=1.22
    subdir=app
    gradle=yes

Build:1.24,24
    commit=1.24
    subdir=app
    gradle=yes

Build:2.0.1,26
    commit=2.0.1
    subdir=app
    gradle=yes

Build:2.0.2,27
    commit=2.0.2
    subdir=app
    gradle=yes

Build:2.0.3,28
    commit=2.0.3
    subdir=app
    gradle=yes

Build:2.1.0,30
    commit=2.1.0
    subdir=app
    gradle=yes

Build:2.1.1,31
    commit=2.1.1
    subdir=app
    gradle=yes

Build:2.1.2,32
    commit=2.1.2
    subdir=app
    gradle=yes

Build:2.2.0,33
    commit=2.2.0
    subdir=app
    gradle=yes

Build:2.2.1,34
    commit=2.2.1
    subdir=app
    gradle=yes

Build:2.2.2,35
    commit=2.2.2
    subdir=app
    gradle=yes

Build:2.2.3,36
    commit=2.2.3
    subdir=app
    gradle=yes

Build:2.2.4,37
    commit=2.2.4
    subdir=app
    gradle=yes

Build:2.3.0,38
    commit=2.3.0
    subdir=app
    gradle=yes

Build:2.4.0,39
    disable=Could not find com.android.tools.build:gradle:3.0.0
    commit=2.4.0
    subdir=app
    gradle=yes

Build:2.5.0,40
    commit=2.5.0
    subdir=app
    gradle=yes

Build:3.0.1,43
    commit=3.0.1
    subdir=app
    gradle=yes

Build:3.1.0,44
    commit=3.1.0
    subdir=app
    gradle=yes

Build:3.1.1,45
    commit=3.1.1
    subdir=app
    gradle=yes

Auto Update Mode:Version %v
Update Check Mode:Tags
Current Version:3.1.1
Current Version Code:45
